\relax 
\@writefile{toc}{\contentsline {section}{}{1}}
\@writefile{toc}{\contentsline {section}{\leavevmode {\color  {blue}Personal Details}}{1}}
\@writefile{toc}{\contentsline {section}{\leavevmode {\color  {blue}Research Interests}}{1}}
\@writefile{toc}{\contentsline {section}{\leavevmode {\color  {blue}Education}}{2}}
\@writefile{toc}{\contentsline {section}{\leavevmode {\color  {blue}Work Experience}}{2}}
\@writefile{toc}{\contentsline {section}{\leavevmode {\color  {blue}Awards}}{2}}
\@writefile{toc}{\contentsline {section}{\leavevmode {\color  {blue}Professional Activities/Service}}{2}}
\@writefile{toc}{\contentsline {section}{\leavevmode {\color  {blue}Publication}}{3}}
